%YAML 1.1
%TAG !u! tag:unity3d.com,2011:
--- !u!1045 &1
EditorBuildSettings:
  m_ObjectHideFlags: 0
  serializedVersion: 2
  m_Scenes:
  - enabled: 1
    path: Assets/Scenes/Start Menu.unity
    guid: 334fe9b7d8ce323478db0a689556c988
  - enabled: 1
    path: Assets/Scenes/Level 1.unity
    guid: 5aab9192c23caee4bb131a53267f1dfb
  - enabled: 1
    path: Assets/Scenes/Level 2.unity
    guid: 43829ec0323ae4c80960bb7612dde80b
  - enabled: 1
    path: Assets/Scenes/Level 3.unity
    guid: f3530284ab6824959999064157dffc38
  - enabled: 1
    path: Assets/Scenes/Level 4.unity
    guid: 54849df160e194d4ea146e528cf4c75b
  - enabled: 1
    path: Assets/Scenes/Level 5.unity
    guid: 5e3a09251db4c410da1433634e930b9c
  - enabled: 1
    path: Assets/Scenes/Level 6.unity
    guid: 59b2207ca1c2e4a3994c43bac3a24c54
  - enabled: 1
    path: Assets/Scenes/Game Over.unity
    guid: 30106868e4f8c69468a399eadb7d7cc2
  m_configObjects: {}
